…
芜湖！没问题，批量计算工作日**纯工时**：

``` r
dt |> 
  pivot_longer(2:31, names_to = "date", values_to = "check") |> 
  drop_na(check) |> 
  mutate(
    res = map(str_split(check, "  \r\n"), calculate_attendance_time)
  ) |> 
  unnest_wider(res) |> 
  mutate(across(4:7, \(x) round(x, 2))) |> 
  select(-check)
#> # A tibble: 42 × 6
#>    姓名  date   morning afternoon evening total
#>    <chr> <chr>    <dbl>     <dbl>   <dbl> <dbl>
#>  1 甲    date1     2.93       4.5    2     9.43
#>  2 甲    date2     3          4.5    2.7  10.2 
#>  3 甲    date3     2.93       4.5    1.2   8.63
#>  4 甲    date7     2.95       4.5    0.77  8.22
#>  5 甲    date8     2.93       4.5    2.02  9.45
#>  6 甲    date9     3          4.5    2.1   9.6 
#>  7 甲    date11    3          4.5    1.7   9.2 
#>  8 甲    date12    2.95       4.5    0.13  7.58
#>  9 甲    date15    3          4.5    1.5   9   
#> 10 甲    date16    2.95       4.5    1.57  9.02
#> # ℹ 32 more rows
```
…
