…
针对使用 [Tidy selection](https://dplyr.tidyverse.org/articles/programming.html#tidy-selection) 的函数（如 `select()`），参数中如要传入字符串，可以使用 `any_of()` 或者 `all_of()`，具体可以在 dplyr 的[文档](https://dplyr.tidyverse.org/articles/programming.html#indirection-1)中看到：


```r
select_col = function(data, select_col_chr) {
  data %>% select(all_of(select_col_chr))
}

as_tibble(iris) %>% select_col(c("Species", "Sepal.Length"))
```

```
## # A tibble: 150 × 2
##   Species Sepal.Length
##   <fct>          <dbl>
## 1 setosa           5.1
## 2 setosa           4.9
## 3 setosa           4.7
## 4 setosa           4.6
## 5 setosa           5  
## # ℹ 145 more rows
```
…
```r
group_data = function(data, group_var_chr) {
  data %>% group_by(pick({{ group_var_chr }}))
}
```


```r
group_data(iris, c("Species", "Sepal.Length"))
```

```
## # A tibble: 150 × 5
## # Groups:   Species, Sepal.Length [57]
##   Sepal.Length Sepal.Width Petal.Length Petal.Width Species
##          <dbl>       <dbl>        <dbl>       <dbl> <fct>  
## 1          5.1         3.5          1.4         0.2 setosa 
## 2          4.9         3            1.4         0.2 setosa 
## 3          4.7         3.2          1.3         0.2 setosa 
## 4          4.6         3.1          1.5         0.2 setosa 
## 5          5           3.6          1.4         0.2 setosa 
## # ℹ 145 more rows
```
